<?xml version="1.0" encoding="utf-8"?>
<!DOCTYPE eagle SYSTEM "eagle.dtd">
<eagle version="7.7.0">
<drawing>
<settings>
<setting alwaysvectorfont="no"/>
<setting verticaltext="up"/>
</settings>
<grid distance="0.1" unitdist="mm" unit="mm" style="lines" multiple="1" display="yes" altdistance="0.025" altunitdist="inch" altunit="inch"/>
<layers>
<layer number="1" name="Top" color="1" fill="1" visible="yes" active="yes"/>
<layer number="16" name="Bottom" color="4" fill="1" visible="yes" active="yes"/>
<layer number="17" name="Pads" color="2" fill="1" visible="yes" active="yes"/>
<layer number="18" name="Vias" color="2" fill="1" visible="yes" active="yes"/>
<layer number="19" name="Unrouted" color="6" fill="1" visible="no" active="yes"/>
<layer number="20" name="Dimension" color="15" fill="1" visible="yes" active="yes"/>
<layer number="21" name="tPlace" color="7" fill="1" visible="yes" active="yes"/>
<layer number="22" name="bPlace" color="7" fill="1" visible="yes" active="yes"/>
<layer number="23" name="tOrigins" color="15" fill="1" visible="yes" active="yes"/>
<layer number="24" name="bOrigins" color="15" fill="1" visible="yes" active="yes"/>
<layer number="25" name="tNames" color="7" fill="1" visible="yes" active="yes"/>
<layer number="26" name="bNames" color="7" fill="1" visible="yes" active="yes"/>
<layer number="27" name="tValues" color="7" fill="1" visible="yes" active="yes"/>
<layer number="28" name="bValues" color="7" fill="1" visible="yes" active="yes"/>
<layer number="29" name="tStop" color="7" fill="6" visible="yes" active="yes"/>
<layer number="30" name="bStop" color="7" fill="3" visible="yes" active="yes"/>
<layer number="31" name="tCream" color="7" fill="5" visible="yes" active="yes"/>
<layer number="32" name="bCream" color="7" fill="4" visible="yes" active="yes"/>
<layer number="33" name="tFinish" color="6" fill="3" visible="yes" active="yes"/>
<layer number="34" name="bFinish" color="6" fill="6" visible="yes" active="yes"/>
<layer number="35" name="tGlue" color="7" fill="4" visible="yes" active="yes"/>
<layer number="36" name="bGlue" color="7" fill="5" visible="yes" active="yes"/>
<layer number="37" name="tTest" color="7" fill="1" visible="yes" active="yes"/>
<layer number="38" name="bTest" color="7" fill="1" visible="yes" active="yes"/>
<layer number="39" name="tKeepout" color="4" fill="11" visible="no" active="yes"/>
<layer number="40" name="bKeepout" color="1" fill="11" visible="no" active="yes"/>
<layer number="41" name="tRestrict" color="4" fill="10" visible="no" active="yes"/>
<layer number="42" name="bRestrict" color="1" fill="10" visible="no" active="yes"/>
<layer number="43" name="vRestrict" color="2" fill="10" visible="no" active="yes"/>
<layer number="44" name="Drills" color="7" fill="1" visible="no" active="yes"/>
<layer number="45" name="Holes" color="7" fill="1" visible="no" active="yes"/>
<layer number="46" name="Milling" color="3" fill="1" visible="no" active="yes"/>
<layer number="47" name="Measures" color="7" fill="1" visible="no" active="yes"/>
<layer number="48" name="Document" color="7" fill="1" visible="no" active="yes"/>
<layer number="49" name="Reference" color="7" fill="1" visible="no" active="yes"/>
<layer number="50" name="dxf" color="7" fill="1" visible="no" active="no"/>
<layer number="51" name="tDocu" color="7" fill="1" visible="no" active="yes"/>
<layer number="52" name="bDocu" color="7" fill="1" visible="no" active="yes"/>
<layer number="53" name="tGND_GNDA" color="7" fill="1" visible="no" active="no"/>
<layer number="54" name="bGND_GNDA" color="7" fill="1" visible="no" active="no"/>
<layer number="56" name="wert" color="7" fill="1" visible="no" active="no"/>
<layer number="57" name="tCAD" color="7" fill="1" visible="no" active="no"/>
<layer number="59" name="tCarbon" color="7" fill="1" visible="no" active="no"/>
<layer number="60" name="bCarbon" color="7" fill="1" visible="no" active="no"/>
<layer number="90" name="Modules" color="5" fill="1" visible="no" active="no"/>
<layer number="91" name="Nets" color="2" fill="1" visible="no" active="no"/>
<layer number="92" name="Busses" color="1" fill="1" visible="no" active="no"/>
<layer number="93" name="Pins" color="2" fill="1" visible="no" active="no"/>
<layer number="94" name="Symbols" color="4" fill="1" visible="no" active="no"/>
<layer number="95" name="Names" color="7" fill="1" visible="no" active="no"/>
<layer number="96" name="Values" color="7" fill="1" visible="no" active="no"/>
<layer number="97" name="Info" color="7" fill="1" visible="no" active="no"/>
<layer number="98" name="Guide" color="6" fill="1" visible="no" active="no"/>
<layer number="99" name="SpiceOrder" color="7" fill="1" visible="no" active="no"/>
<layer number="100" name="PaJa" color="12" fill="7" visible="no" active="yes"/>
<layer number="101" name="Doplnky" color="5" fill="1" visible="no" active="yes"/>
<layer number="102" name="Kola" color="2" fill="1" visible="no" active="yes"/>
<layer number="103" name="Popisy" color="7" fill="1" visible="no" active="yes"/>
<layer number="104" name="Zapojeni" color="7" fill="1" visible="no" active="yes"/>
<layer number="105" name="pin_numbers" color="12" fill="1" visible="no" active="yes"/>
<layer number="106" name="delate" color="0" fill="1" visible="no" active="yes"/>
<layer number="107" name="pic" color="9" fill="1" visible="no" active="yes"/>
<layer number="108" name="poznamky" color="15" fill="1" visible="no" active="yes"/>
<layer number="109" name="smd" color="11" fill="1" visible="no" active="yes"/>
<layer number="110" name="wago-seda" color="7" fill="8" visible="no" active="yes"/>
<layer number="111" name="wago-cervena" color="12" fill="8" visible="no" active="yes"/>
<layer number="112" name="wago-zelena" color="2" fill="8" visible="no" active="yes"/>
<layer number="113" name="wago-modra" color="1" fill="8" visible="no" active="yes"/>
<layer number="116" name="Patch_BOT" color="9" fill="4" visible="no" active="yes"/>
<layer number="118" name="Rect_Pads" color="7" fill="1" visible="no" active="no"/>
<layer number="121" name="_tsilk" color="7" fill="1" visible="no" active="yes"/>
<layer number="122" name="_bsilk" color="7" fill="1" visible="no" active="yes"/>
<layer number="123" name="tTestmark" color="7" fill="1" visible="no" active="yes"/>
<layer number="124" name="bTestmark" color="7" fill="1" visible="no" active="yes"/>
<layer number="125" name="_tNames" color="7" fill="1" visible="no" active="yes"/>
<layer number="126" name="_bNames" color="7" fill="1" visible="no" active="yes"/>
<layer number="127" name="_tValues" color="7" fill="1" visible="no" active="yes"/>
<layer number="128" name="_bValues" color="7" fill="1" visible="no" active="yes"/>
<layer number="129" name="Mask" color="7" fill="1" visible="no" active="yes"/>
<layer number="131" name="tAdjust" color="7" fill="1" visible="no" active="yes"/>
<layer number="132" name="bAdjust" color="7" fill="1" visible="no" active="yes"/>
<layer number="144" name="Drill_legend" color="7" fill="1" visible="no" active="yes"/>
<layer number="150" name="Notes" color="7" fill="1" visible="no" active="yes"/>
<layer number="151" name="HeatSink" color="7" fill="1" visible="no" active="no"/>
<layer number="152" name="_bDocu" color="7" fill="1" visible="no" active="yes"/>
<layer number="153" name="FabDoc1" color="7" fill="1" visible="no" active="yes"/>
<layer number="154" name="FabDoc2" color="7" fill="1" visible="no" active="yes"/>
<layer number="155" name="FabDoc3" color="7" fill="1" visible="no" active="yes"/>
<layer number="199" name="Contour" color="7" fill="1" visible="no" active="yes"/>
<layer number="200" name="200bmp" color="7" fill="1" visible="no" active="no"/>
<layer number="201" name="201bmp" color="2" fill="10" visible="no" active="yes"/>
<layer number="202" name="202bmp" color="3" fill="10" visible="no" active="yes"/>
<layer number="203" name="203bmp" color="4" fill="10" visible="no" active="yes"/>
<layer number="204" name="204bmp" color="5" fill="10" visible="no" active="yes"/>
<layer number="205" name="205bmp" color="6" fill="10" visible="no" active="yes"/>
<layer number="206" name="206bmp" color="7" fill="10" visible="no" active="yes"/>
<layer number="207" name="207bmp" color="8" fill="10" visible="no" active="yes"/>
<layer number="208" name="208bmp" color="9" fill="10" visible="no" active="yes"/>
<layer number="209" name="209bmp" color="7" fill="1" visible="no" active="yes"/>
<layer number="210" name="210bmp" color="7" fill="1" visible="no" active="yes"/>
<layer number="211" name="211bmp" color="7" fill="1" visible="no" active="yes"/>
<layer number="212" name="212bmp" color="7" fill="1" visible="no" active="yes"/>
<layer number="213" name="213bmp" color="7" fill="1" visible="no" active="yes"/>
<layer number="214" name="214bmp" color="7" fill="1" visible="no" active="yes"/>
<layer number="215" name="215bmp" color="7" fill="1" visible="no" active="yes"/>
<layer number="216" name="216bmp" color="7" fill="1" visible="no" active="yes"/>
<layer number="217" name="217bmp" color="18" fill="1" visible="no" active="no"/>
<layer number="218" name="218bmp" color="19" fill="1" visible="no" active="no"/>
<layer number="219" name="219bmp" color="20" fill="1" visible="no" active="no"/>
<layer number="220" name="220bmp" color="21" fill="1" visible="no" active="no"/>
<layer number="221" name="221bmp" color="22" fill="1" visible="no" active="no"/>
<layer number="222" name="222bmp" color="23" fill="1" visible="no" active="no"/>
<layer number="223" name="223bmp" color="24" fill="1" visible="no" active="no"/>
<layer number="224" name="224bmp" color="25" fill="1" visible="no" active="no"/>
<layer number="225" name="225bmp" color="7" fill="1" visible="no" active="yes"/>
<layer number="226" name="226bmp" color="7" fill="1" visible="no" active="yes"/>
<layer number="227" name="227bmp" color="7" fill="1" visible="no" active="yes"/>
<layer number="228" name="228bmp" color="7" fill="1" visible="no" active="yes"/>
<layer number="229" name="229bmp" color="7" fill="1" visible="no" active="yes"/>
<layer number="230" name="230bmp" color="7" fill="1" visible="no" active="yes"/>
<layer number="231" name="Eagle3D_PG1" color="7" fill="1" visible="no" active="no"/>
<layer number="232" name="Eagle3D_PG2" color="7" fill="1" visible="no" active="no"/>
<layer number="233" name="Eagle3D_PG3" color="7" fill="1" visible="no" active="no"/>
<layer number="248" name="Housing" color="7" fill="1" visible="no" active="yes"/>
<layer number="249" name="Edge" color="7" fill="1" visible="no" active="yes"/>
<layer number="250" name="Descript" color="7" fill="1" visible="no" active="no"/>
<layer number="251" name="SMDround" color="7" fill="1" visible="no" active="no"/>
<layer number="254" name="OrgLBR" color="7" fill="1" visible="no" active="no"/>
<layer number="255" name="routoute" color="7" fill="1" visible="no" active="yes"/>
</layers>
<board>
<plain>
<wire x1="0" y1="78.74" x2="66.04" y2="78.74" width="0" layer="20"/>
<wire x1="66.04" y1="78.74" x2="66.04" y2="31.115" width="0" layer="20"/>
<wire x1="66.04" y1="31.115" x2="0" y2="31.115" width="0" layer="20"/>
<wire x1="0" y1="31.115" x2="0" y2="78.74" width="0" layer="20"/>
</plain>
<libraries>
<library name="#hahahalib">
<packages>
<package name="ESP32-WROOVER">
<smd name="GND" x="-8.49" y="11.43" dx="2" dy="0.9" layer="16"/>
<smd name="3V3" x="-8.49" y="10.16" dx="2" dy="0.9" layer="16"/>
<smd name="EN" x="-8.49" y="8.89" dx="2" dy="0.9" layer="16"/>
<smd name="VP" x="-8.49" y="7.62" dx="2" dy="0.9" layer="16"/>
<smd name="VN" x="-8.49" y="6.35" dx="2" dy="0.9" layer="16"/>
<smd name="IO34" x="-8.49" y="5.08" dx="2" dy="0.9" layer="16"/>
<smd name="IO35" x="-8.49" y="3.81" dx="2" dy="0.9" layer="16"/>
<smd name="IO32" x="-8.49" y="2.54" dx="2" dy="0.9" layer="16"/>
<smd name="IO33" x="-8.49" y="1.27" dx="2" dy="0.9" layer="16"/>
<smd name="IO25" x="-8.49" y="0" dx="2" dy="0.9" layer="16"/>
<smd name="@GND" x="-8.49" y="-6.35" dx="2" dy="0.9" layer="16"/>
<smd name="IO26" x="-8.49" y="-1.27" dx="2" dy="0.9" layer="16"/>
<smd name="IO27" x="-8.49" y="-2.54" dx="2" dy="0.9" layer="16"/>
<smd name="IO14" x="-8.49" y="-3.81" dx="2" dy="0.9" layer="16"/>
<smd name="IO12" x="-8.49" y="-5.08" dx="2" dy="0.9" layer="16"/>
<smd name="IO13" x="-8.49" y="-7.62" dx="2" dy="0.9" layer="16"/>
<smd name="SD2" x="-8.49" y="-8.89" dx="2" dy="0.9" layer="16"/>
<smd name="SD3" x="-8.49" y="-10.16" dx="2" dy="0.9" layer="16"/>
<smd name="CMD" x="-8.49" y="-11.43" dx="2" dy="0.9" layer="16"/>
<smd name="GND$2" x="8.49" y="11.43" dx="2" dy="0.9" layer="16"/>
<smd name="IO23" x="8.49" y="10.16" dx="2" dy="0.9" layer="16"/>
<smd name="IO22" x="8.49" y="8.89" dx="2" dy="0.9" layer="16"/>
<smd name="TXD0" x="8.49" y="7.62" dx="2" dy="0.9" layer="16"/>
<smd name="RXD0" x="8.49" y="6.35" dx="2" dy="0.9" layer="16"/>
<smd name="IO21" x="8.49" y="5.08" dx="2" dy="0.9" layer="16"/>
<smd name="NC" x="8.49" y="3.81" dx="2" dy="0.9" layer="16"/>
<smd name="IO19" x="8.49" y="2.54" dx="2" dy="0.9" layer="16"/>
<smd name="IO18" x="8.49" y="1.27" dx="2" dy="0.9" layer="16"/>
<smd name="IO5" x="8.49" y="0" dx="2" dy="0.9" layer="16"/>
<smd name="NC2" x="8.49" y="-1.27" dx="2" dy="0.9" layer="16"/>
<smd name="NC3" x="8.49" y="-2.54" dx="2" dy="0.9" layer="16"/>
<smd name="IO4" x="8.49" y="-3.81" dx="2" dy="0.9" layer="16"/>
<smd name="IO0" x="8.49" y="-5.08" dx="2" dy="0.9" layer="16"/>
<smd name="IO2" x="8.49" y="-6.35" dx="2" dy="0.9" layer="16"/>
<smd name="IO15" x="8.49" y="-7.62" dx="2" dy="0.9" layer="16"/>
<smd name="SD1" x="8.49" y="-8.89" dx="2" dy="0.9" layer="16"/>
<smd name="SD0" x="8.49" y="-10.16" dx="2" dy="0.9" layer="16"/>
<smd name="CLK" x="8.49" y="-11.43" dx="2" dy="0.9" layer="16"/>
<wire x1="-10.16" y1="12.7" x2="-10.16" y2="-12.7" width="0.127" layer="51"/>
<wire x1="-10.16" y1="-12.7" x2="10.16" y2="-12.7" width="0.127" layer="51"/>
<wire x1="10.16" y1="-12.7" x2="10.16" y2="12.7" width="0.127" layer="51"/>
<wire x1="-10.16" y1="12.7" x2="10.16" y2="12.7" width="0.127" layer="51"/>
<smd name="GND4" x="-0.635" y="2.54" dx="6.4516" dy="7.7216" layer="16"/>
</package>
<package name="6XFPC">
<wire x1="-2.54" y1="-3.4385" x2="2.96" y2="-3.4385" width="0.127" layer="51"/>
<wire x1="2.96" y1="-3.4385" x2="2.96" y2="4.7085" width="0.127" layer="51"/>
<wire x1="2.96" y1="4.7085" x2="-2.54" y2="4.7085" width="0.127" layer="51"/>
<wire x1="-2.54" y1="4.7085" x2="-2.54" y2="-3.4385" width="0.127" layer="51"/>
<smd name="5" x="3.46" y="-0.85" dx="2" dy="0.2" layer="1"/>
<smd name="4" x="3.46" y="0.15" dx="2" dy="0.2" layer="1"/>
<smd name="3" x="3.46" y="1.15" dx="2" dy="0.2" layer="1"/>
<smd name="6" x="3.46" y="-1.85" dx="2" dy="0.2" layer="1"/>
<smd name="2" x="3.46" y="2.15" dx="2" dy="0.2" layer="1"/>
<smd name="1" x="3.46" y="3.15" dx="2" dy="0.2" layer="1"/>
<text x="-2.54" y="5.08" size="1.27" layer="25">&gt;NAME</text>
<rectangle x1="2.46" y1="2.85" x2="4.46" y2="3.45" layer="1"/>
<rectangle x1="2.46" y1="1.85" x2="4.46" y2="2.45" layer="1"/>
<rectangle x1="2.46" y1="0.85" x2="4.46" y2="1.45" layer="1"/>
<rectangle x1="2.46" y1="-0.15" x2="4.46" y2="0.45" layer="1"/>
<rectangle x1="2.46" y1="-1.15" x2="4.46" y2="-0.55" layer="1"/>
<rectangle x1="2.46" y1="-2.15" x2="4.46" y2="-1.55" layer="1"/>
</package>
</packages>
</library>
<library name="#PaJa_30">
<description>&lt;B&gt;PaJa 30&lt;/B&gt; - knihovna   &amp;nbsp; &amp;nbsp; &amp;nbsp; &amp;nbsp; &amp;nbsp; &amp;nbsp; 
&lt;I&gt;(vytvoreno 1.6.2011)&lt;/I&gt;&lt;BR&gt;
Univerzální knihovna soucastek do Eagle &lt;I&gt;(od verze 5.6)&lt;/I&gt;&lt;BR&gt;
&lt;BR&gt;
Knihovna obsahuje: 196 soucastek na DPS, 298 do SCHematu&lt;BR&gt;
&lt;BR&gt;
&lt;Author&gt;Copyright (C) PaJa 2001-2011&lt;BR&gt;
http://www.paja-trb.unas.cz&lt;BR&gt;
paja-trb@seznam.cz
&lt;/author&gt;</description>
<packages>
<package name="SM-1">
<wire x1="-0.635" y1="0" x2="0.3175" y2="0.635" width="0.127" layer="21"/>
<wire x1="0.3175" y1="0.635" x2="0.3175" y2="-0.635" width="0.127" layer="21"/>
<wire x1="0.3175" y1="-0.635" x2="-0.635" y2="0" width="0.127" layer="21"/>
<wire x1="-1.905" y1="1.27" x2="-1.905" y2="-1.27" width="0.127" layer="21"/>
<wire x1="-1.905" y1="-1.27" x2="1.905" y2="-1.27" width="0.127" layer="21"/>
<wire x1="1.905" y1="-1.27" x2="1.905" y2="1.27" width="0.127" layer="21"/>
<wire x1="1.905" y1="1.27" x2="-1.905" y2="1.27" width="0.127" layer="21"/>
<smd name="K" x="-2.8575" y="0" dx="2.54" dy="1.27" layer="1" rot="R90"/>
<smd name="A" x="2.8575" y="0" dx="2.54" dy="1.27" layer="1" rot="R90"/>
<text x="-1.3494" y="-0.4763" size="0.254" layer="100" font="vector" rot="R90">PaJa</text>
<text x="-2.0638" y="-2.5401" size="1.016" layer="27" font="vector">&gt;Value</text>
<text x="1.5875" y="-0.9525" size="1.016" layer="25" font="vector" rot="R90">&gt;Name</text>
<rectangle x1="-2.54" y1="-1.27" x2="-1.905" y2="1.27" layer="51"/>
<rectangle x1="1.905" y1="-1.27" x2="2.54" y2="1.27" layer="51"/>
<rectangle x1="-1.27" y1="-1.27" x2="-0.635" y2="1.27" layer="21"/>
</package>
<package name="R-12,7">
<description>&lt;B&gt;Odpor&lt;/B&gt; - roztec nozek 12,7mm</description>
<wire x1="3.7648" y1="1.2546" x2="3.8918" y2="1.3816" width="0.127" layer="21"/>
<wire x1="3.7648" y1="-1.2546" x2="3.8918" y2="-1.3816" width="0.127" layer="21"/>
<wire x1="4.2728" y1="1.3776" x2="3.8918" y2="1.3776" width="0.127" layer="21"/>
<wire x1="4.2728" y1="-1.3856" x2="3.8918" y2="-1.3856" width="0.127" layer="21"/>
<wire x1="4.2728" y1="-1.3856" x2="4.5268" y2="-1.1316" width="0.127" layer="21" curve="90" cap="flat"/>
<wire x1="4.2728" y1="1.3776" x2="4.5268" y2="1.1236" width="0.127" layer="21" curve="-90" cap="flat"/>
<wire x1="4.5249" y1="-1.1209" x2="4.5249" y2="1.1053" width="0.127" layer="21"/>
<wire x1="-3.7649" y1="1.2547" x2="-3.8919" y2="1.3817" width="0.127" layer="21"/>
<wire x1="-3.7649" y1="-1.2546" x2="-3.8919" y2="-1.3816" width="0.127" layer="21"/>
<wire x1="3.7648" y1="1.2546" x2="-3.7649" y2="1.2547" width="0.127" layer="21"/>
<wire x1="3.7648" y1="-1.2546" x2="-3.7649" y2="-1.2546" width="0.127" layer="21"/>
<wire x1="-4.5269" y1="1.1316" x2="-4.2729" y2="1.3856" width="0.127" layer="21" curve="-90" cap="flat"/>
<wire x1="-4.5269" y1="-1.1236" x2="-4.2729" y2="-1.3776" width="0.127" layer="21" curve="90" cap="flat"/>
<wire x1="-4.2729" y1="-1.3776" x2="-3.8919" y2="-1.3776" width="0.127" layer="21"/>
<wire x1="-4.2729" y1="1.3856" x2="-3.8919" y2="1.3856" width="0.127" layer="21"/>
<wire x1="-4.525" y1="1.1209" x2="-4.525" y2="-1.1054" width="0.127" layer="21"/>
<circle x="-6.35" y="0" radius="0.4763" width="0.127" layer="102"/>
<circle x="6.35" y="0" radius="0.4762" width="0.127" layer="102"/>
<pad name="1" x="-6.35" y="0" drill="0.8128" diameter="2.1844" shape="octagon"/>
<pad name="2" x="6.35" y="0" drill="0.8128" diameter="2.1844" shape="octagon"/>
<text x="-0.4813" y="-0.7958" size="1.4224" layer="27" font="vector">&gt;Value</text>
<text x="-4.2905" y="-0.7144" size="1.4224" layer="25" font="vector">&gt;Name</text>
<text x="3.5712" y="-1.1046" size="0.254" layer="100" font="vector">PaJa</text>
<rectangle x1="-5.08" y1="-0.3175" x2="-4.445" y2="0.3175" layer="21"/>
<rectangle x1="4.6038" y1="-0.3175" x2="5.08" y2="0.3175" layer="21"/>
<rectangle x1="4.445" y1="-0.3175" x2="5.08" y2="0.3175" layer="21"/>
<rectangle x1="-5.8738" y1="-0.3175" x2="-5.08" y2="0.3175" layer="51"/>
<rectangle x1="5.08" y1="-0.3175" x2="5.8738" y2="0.3175" layer="51"/>
</package>
<package name="1206">
<description>&lt;B&gt;SMD&lt;/B&gt; - velikost 1206</description>
<wire x1="-1.0541" y1="0.7938" x2="-0.7938" y2="0.7938" width="0.127" layer="51"/>
<wire x1="-0.7938" y1="0.7938" x2="0.7938" y2="0.7938" width="0.127" layer="21"/>
<wire x1="0.7938" y1="0.7938" x2="1.0541" y2="0.7938" width="0.127" layer="51"/>
<wire x1="-1.0541" y1="-0.7938" x2="-0.7938" y2="-0.7938" width="0.127" layer="51"/>
<wire x1="-0.7938" y1="-0.7938" x2="0.7938" y2="-0.7938" width="0.127" layer="21"/>
<wire x1="0.7938" y1="-0.7938" x2="1.0541" y2="-0.7938" width="0.127" layer="51"/>
<wire x1="1.0541" y1="0.7938" x2="1.0541" y2="-0.7938" width="0.127" layer="51"/>
<wire x1="-1.0541" y1="0.7938" x2="-1.0541" y2="-0.7938" width="0.127" layer="51"/>
<smd name="1" x="-1.5875" y="0" dx="1.143" dy="1.7018" layer="1"/>
<smd name="2" x="1.5875" y="0" dx="1.143" dy="1.7018" layer="1"/>
<text x="-0.3175" y="-1.1906" size="0.254" layer="100" font="vector">PaJa</text>
<text x="-0.7938" y="-0.4763" size="1.016" layer="25" font="vector">&gt;Name</text>
<text x="-0.7938" y="0.9525" size="1.016" layer="27" font="vector">&gt;Value</text>
<rectangle x1="-1.4541" y1="-0.7874" x2="-0.9461" y2="0.7874" layer="51"/>
<rectangle x1="0.9461" y1="-0.7874" x2="1.4541" y2="0.7874" layer="51"/>
</package>
<package name="LED_3">
<description>&lt;B&gt;LED dioda&lt;/B&gt; - 3mm prumer</description>
<wire x1="-0.381" y1="-0.381" x2="-0.381" y2="-0.889" width="0.127" layer="51"/>
<wire x1="-0.381" y1="-1.397" x2="0.381" y2="-0.889" width="0.127" layer="51"/>
<wire x1="0.381" y1="-0.889" x2="0.889" y2="-0.889" width="0.127" layer="51"/>
<wire x1="0.381" y1="-0.889" x2="-0.381" y2="-0.381" width="0.127" layer="51"/>
<wire x1="-0.635" y1="0.508" x2="0.127" y2="1.27" width="0.127" layer="51"/>
<wire x1="0" y1="0.127" x2="0.762" y2="0.889" width="0.127" layer="51"/>
<wire x1="-0.254" y1="1.143" x2="0" y2="0.889" width="0.127" layer="51"/>
<wire x1="0" y1="0.889" x2="0.127" y2="1.27" width="0.127" layer="51"/>
<wire x1="0.127" y1="1.27" x2="-0.254" y2="1.143" width="0.127" layer="51"/>
<wire x1="0.762" y1="0.889" x2="0.381" y2="0.762" width="0.127" layer="51"/>
<wire x1="0.381" y1="0.762" x2="0.635" y2="0.508" width="0.127" layer="51"/>
<wire x1="0.635" y1="0.508" x2="0.762" y2="0.889" width="0.127" layer="51"/>
<wire x1="0.508" y1="0.762" x2="0.635" y2="0.635" width="0.127" layer="51"/>
<wire x1="-0.127" y1="1.143" x2="0" y2="1.016" width="0.127" layer="51"/>
<wire x1="0.381" y1="-1.397" x2="0.381" y2="-0.889" width="0.127" layer="51"/>
<wire x1="0.381" y1="-0.889" x2="0.381" y2="-0.381" width="0.127" layer="51"/>
<wire x1="0.889" y1="-0.889" x2="1.1685" y2="-0.5239" width="0.127" layer="51"/>
<wire x1="-0.8889" y1="-0.889" x2="-1.0921" y2="-0.5238" width="0.127" layer="51"/>
<wire x1="-0.8889" y1="-0.889" x2="-0.381" y2="-0.889" width="0.127" layer="51"/>
<wire x1="-0.381" y1="-0.889" x2="-0.381" y2="-1.397" width="0.127" layer="51"/>
<wire x1="-1.5081" y1="0.4763" x2="1.4289" y2="0.7145" width="0.127" layer="21" curve="-135.860035" cap="flat"/>
<wire x1="-1.5081" y1="-0.4763" x2="1.4288" y2="-0.7144" width="0.127" layer="21" curve="135.855325" cap="flat"/>
<wire x1="1.4288" y1="0.7144" x2="1.4288" y2="0.4763" width="0.127" layer="21"/>
<wire x1="1.4288" y1="-0.7144" x2="1.4288" y2="-0.4763" width="0.127" layer="21"/>
<wire x1="1.4288" y1="0.4763" x2="1.4288" y2="-0.4763" width="0.127" layer="51"/>
<wire x1="-1.5081" y1="0.4763" x2="-1.5081" y2="-0.4763" width="0.127" layer="51" curve="35.055137" cap="flat"/>
<circle x="-1.272" y="0" radius="0.5028" width="0.127" layer="102"/>
<circle x="1.272" y="0" radius="0.477" width="0.127" layer="102"/>
<pad name="A" x="-1.27" y="0" drill="0.8128" diameter="1.778"/>
<pad name="K" x="1.27" y="0" drill="0.8128" diameter="1.778" shape="square"/>
<text x="-2.544" y="1.749" size="1.27" layer="25" font="vector">&gt;Name</text>
<text x="-2.703" y="-3.021" size="1.27" layer="27" font="vector">&gt;Value</text>
<text x="-0.318" y="0.636" size="0.254" layer="100" font="vector" rot="R270">PaJa</text>
</package>
</packages>
</library>
<library name="adafruit">
<packages>
<package name="TACT_PANA-EVQ">
<pad name="P$1" x="-5.155" y="0" drill="0.8" diameter="1.6764"/>
<pad name="P$2" x="2.615" y="0" drill="0.8" diameter="1.6764"/>
<wire x1="-4.905" y1="1.75" x2="2.365" y2="1.75" width="0.127" layer="51"/>
<wire x1="2.365" y1="1.75" x2="2.365" y2="0.5" width="0.127" layer="51"/>
<wire x1="2.365" y1="-0.5" x2="2.365" y2="-1.75" width="0.127" layer="51"/>
<wire x1="2.365" y1="-1.75" x2="-4.905" y2="-1.75" width="0.127" layer="51"/>
<wire x1="-4.905" y1="-1.75" x2="-4.905" y2="-0.5" width="0.127" layer="51"/>
<wire x1="-4.905" y1="0.5" x2="-4.905" y2="1.75" width="0.127" layer="51"/>
<wire x1="3.315" y1="-0.5" x2="3.315" y2="0.5" width="0.127" layer="51"/>
<wire x1="2.365" y1="0.5" x2="2.365" y2="-0.5" width="0.127" layer="51"/>
<wire x1="2.365" y1="-0.5" x2="3.315" y2="-0.5" width="0.127" layer="51"/>
<wire x1="3.315" y1="0.5" x2="2.365" y2="0.5" width="0.127" layer="51"/>
<wire x1="-5.855" y1="0.5" x2="-4.905" y2="0.5" width="0.127" layer="51"/>
<wire x1="-4.905" y1="0.5" x2="-4.905" y2="-0.5" width="0.127" layer="51"/>
<wire x1="-4.905" y1="-0.5" x2="-5.855" y2="-0.5" width="0.127" layer="51"/>
<wire x1="-5.855" y1="-0.5" x2="-5.855" y2="0.5" width="0.127" layer="51"/>
<wire x1="-3.405" y1="0.7" x2="0.865" y2="0.7" width="0.127" layer="51"/>
<wire x1="0.865" y1="0.7" x2="0.865" y2="-0.7" width="0.127" layer="51"/>
<wire x1="0.865" y1="-0.7" x2="-3.405" y2="-0.7" width="0.127" layer="51"/>
<wire x1="-3.405" y1="-0.7" x2="-3.405" y2="0.7" width="0.127" layer="51"/>
<wire x1="-3.735" y1="1.5" x2="-3.735" y2="1.9" width="0.127" layer="21"/>
<wire x1="-3.735" y1="1.9" x2="2.465" y2="1.9" width="0.127" layer="21"/>
<wire x1="2.465" y1="1.9" x2="2.465" y2="1.5" width="0.127" layer="21"/>
<wire x1="-3.735" y1="-1.5" x2="-3.735" y2="-1.9" width="0.127" layer="21"/>
<wire x1="-3.735" y1="-1.9" x2="2.465" y2="-1.9" width="0.127" layer="21"/>
<wire x1="2.465" y1="-1.9" x2="2.465" y2="-1.5" width="0.127" layer="21"/>
<text x="-3.678" y="2.17" size="0.8128" layer="25" ratio="18">&gt;NAME</text>
<text x="-3.651" y="-2.451" size="0.4064" layer="27" ratio="10">&gt;VALUE</text>
</package>
</packages>
</library>
<library name="atomx_Connectors">
<packages>
<package name="1X05_LOCK_LONGPADS">
<description>This footprint was designed to help hold the alignment of a through-hole component (i.e.  6-pin header) while soldering it into place.  
You may notice that each hole has been shifted either up or down by 0.005 of an inch from it's more standard position (which is a perfectly straight line).  
This slight alteration caused the pins (the squares in the middle) to touch the edges of the holes.  Because they are alternating, it causes a "brace" 
to hold the component in place.  0.005 has proven to be the perfect amount of "off-center" position when using our standard breakaway headers.
Although looks a little odd when you look at the bare footprint, once you have a header in there, the alteration is very hard to notice.  Also,
if you push a header all the way into place, it is covered up entirely on the bottom side.  This idea of altering the position of holes to aid alignment 
will be further integrated into the Sparkfun Library for other footprints.  It can help hold any component with 3 or more connection pins.</description>
<wire x1="1.524" y1="-0.127" x2="1.016" y2="-0.127" width="0.2032" layer="21"/>
<wire x1="4.064" y1="-0.127" x2="3.556" y2="-0.127" width="0.2032" layer="21"/>
<wire x1="6.604" y1="-0.127" x2="6.096" y2="-0.127" width="0.2032" layer="21"/>
<wire x1="9.144" y1="-0.127" x2="8.636" y2="-0.127" width="0.2032" layer="21"/>
<wire x1="-1.27" y1="-0.127" x2="-1.016" y2="-0.127" width="0.2032" layer="21"/>
<wire x1="-1.27" y1="-0.127" x2="-1.27" y2="0.8636" width="0.2032" layer="21"/>
<wire x1="-1.27" y1="0.8636" x2="-0.9906" y2="1.143" width="0.2032" layer="21"/>
<wire x1="-1.27" y1="-0.127" x2="-1.27" y2="-1.1176" width="0.2032" layer="21"/>
<wire x1="-1.27" y1="-1.1176" x2="-0.9906" y2="-1.397" width="0.2032" layer="21"/>
<wire x1="11.43" y1="-0.127" x2="11.176" y2="-0.127" width="0.2032" layer="21"/>
<wire x1="11.43" y1="-0.127" x2="11.43" y2="-1.1176" width="0.2032" layer="21"/>
<wire x1="11.43" y1="-1.1176" x2="11.1506" y2="-1.397" width="0.2032" layer="21"/>
<wire x1="11.43" y1="-0.127" x2="11.43" y2="0.8636" width="0.2032" layer="21"/>
<wire x1="11.43" y1="0.8636" x2="11.1506" y2="1.143" width="0.2032" layer="21"/>
<pad name="1" x="0" y="0" drill="1.016" shape="long" rot="R90"/>
<pad name="2" x="2.54" y="0.001" drill="1.016" shape="long" rot="R90"/>
<pad name="3" x="5.08" y="0" drill="1.016" shape="long" rot="R90"/>
<pad name="4" x="7.62" y="0.001" drill="1.016" shape="long" rot="R90"/>
<pad name="5" x="10.16" y="0" drill="1.016" shape="long" rot="R90"/>
<text x="-1.27" y="1.778" size="1.27" layer="25" font="vector">&gt;NAME</text>
<text x="-1.27" y="-3.302" size="1.27" layer="27" font="vector">&gt;VALUE</text>
<rectangle x1="-0.2921" y1="-0.4191" x2="0.2921" y2="0.1651" layer="51"/>
<rectangle x1="2.2479" y1="-0.4191" x2="2.8321" y2="0.1651" layer="51"/>
<rectangle x1="4.7879" y1="-0.4191" x2="5.3721" y2="0.1651" layer="51"/>
<rectangle x1="7.3279" y1="-0.4191" x2="7.9121" y2="0.1651" layer="51" rot="R90"/>
<rectangle x1="9.8679" y1="-0.4191" x2="10.4521" y2="0.1651" layer="51"/>
<wire x1="-0.2" y1="1.6" x2="10.725" y2="1.6" width="0.127" layer="21"/>
</package>
<package name="1X05_LONGPADS">
<wire x1="-1.27" y1="0.635" x2="-1.27" y2="-0.635" width="0.2032" layer="21"/>
<wire x1="11.43" y1="0.635" x2="11.43" y2="-0.635" width="0.2032" layer="21"/>
<pad name="1" x="0" y="0" drill="1.1176" diameter="1.8796" shape="long" rot="R90"/>
<pad name="2" x="2.54" y="0" drill="1.1176" diameter="1.8796" shape="long" rot="R90"/>
<pad name="3" x="5.08" y="0" drill="1.1176" diameter="1.8796" shape="long" rot="R90"/>
<pad name="4" x="7.62" y="0" drill="1.1176" diameter="1.8796" shape="long" rot="R90"/>
<pad name="5" x="10.16" y="0" drill="1.1176" diameter="1.8796" shape="long" rot="R90"/>
<text x="-1.3462" y="1.8288" size="1.27" layer="25" ratio="10">&gt;NAME</text>
<text x="-1.27" y="-3.175" size="1.27" layer="27">&gt;VALUE</text>
<rectangle x1="9.906" y1="-0.254" x2="10.414" y2="0.254" layer="51"/>
<rectangle x1="7.366" y1="-0.254" x2="7.874" y2="0.254" layer="51"/>
<rectangle x1="4.826" y1="-0.254" x2="5.334" y2="0.254" layer="51"/>
<rectangle x1="2.286" y1="-0.254" x2="2.794" y2="0.254" layer="51"/>
<rectangle x1="-0.254" y1="-0.254" x2="0.254" y2="0.254" layer="51"/>
<wire x1="-5.08" y1="11.43" x2="15.24" y2="11.43" width="0.127" layer="51"/>
<wire x1="15.24" y1="11.43" x2="15.24" y2="-2.54" width="0.127" layer="51"/>
<wire x1="15.24" y1="-2.54" x2="-5.08" y2="-2.54" width="0.127" layer="51"/>
<wire x1="-5.08" y1="-2.54" x2="-5.08" y2="11.43" width="0.127" layer="51"/>
</package>
<package name="1X02">
<wire x1="-0.635" y1="1.27" x2="0.635" y2="1.27" width="0.2032" layer="21"/>
<wire x1="0.635" y1="1.27" x2="1.27" y2="0.635" width="0.2032" layer="21"/>
<wire x1="1.27" y1="-0.635" x2="0.635" y2="-1.27" width="0.2032" layer="21"/>
<wire x1="1.27" y1="0.635" x2="1.905" y2="1.27" width="0.2032" layer="21"/>
<wire x1="1.905" y1="1.27" x2="3.175" y2="1.27" width="0.2032" layer="21"/>
<wire x1="3.175" y1="1.27" x2="3.81" y2="0.635" width="0.2032" layer="21"/>
<wire x1="3.81" y1="-0.635" x2="3.175" y2="-1.27" width="0.2032" layer="21"/>
<wire x1="3.175" y1="-1.27" x2="1.905" y2="-1.27" width="0.2032" layer="21"/>
<wire x1="1.905" y1="-1.27" x2="1.27" y2="-0.635" width="0.2032" layer="21"/>
<wire x1="-1.27" y1="0.635" x2="-1.27" y2="-0.635" width="0.2032" layer="21"/>
<wire x1="-0.635" y1="1.27" x2="-1.27" y2="0.635" width="0.2032" layer="21"/>
<wire x1="-1.27" y1="-0.635" x2="-0.635" y2="-1.27" width="0.2032" layer="21"/>
<wire x1="0.635" y1="-1.27" x2="-0.635" y2="-1.27" width="0.2032" layer="21"/>
<wire x1="3.81" y1="0.635" x2="3.81" y2="-0.635" width="0.2032" layer="21"/>
<pad name="1" x="0" y="0" drill="1.016" diameter="1.9304" rot="R90"/>
<pad name="2" x="2.54" y="0" drill="1.016" diameter="1.9304" rot="R90"/>
<text x="-1.3462" y="1.8288" size="1.27" layer="25" ratio="10">&gt;NAME</text>
<text x="-1.27" y="-3.175" size="1.27" layer="27">&gt;VALUE</text>
<rectangle x1="2.286" y1="-0.254" x2="2.794" y2="0.254" layer="51"/>
<rectangle x1="-0.254" y1="-0.254" x2="0.254" y2="0.254" layer="51"/>
</package>
</packages>
</library>
<library name="#PaJa_prepinace">
<description>&lt;B&gt;PaJa_prepinace&lt;/B&gt; - knihovna   &amp;nbsp; &amp;nbsp; &amp;nbsp; &amp;nbsp; &amp;nbsp; &amp;nbsp; 
&lt;I&gt;(vytvoreno 1.6.2011)&lt;/I&gt;&lt;BR&gt;
knihovna prepinacu, tlacitek a ovladacu do Eagle &lt;I&gt;(od verze 5.6)&lt;/I&gt;&lt;BR&gt;
&lt;BR&gt;
Knihovna obsahuje: 31 soucastek na DPS, 31 do SCHematu&lt;BR&gt;
&lt;BR&gt;
&lt;Author&gt;Copyright (C) PaJa 2011&lt;BR&gt;
http://www.paja-trb.unas.cz&lt;BR&gt;
paja-trb@seznam.cz
&lt;/author&gt;</description>
<packages>
<package name="P-B069B">
<description>&lt;b&gt;Packovy prepinac&lt;/b&gt; - On - On&lt;BR&gt;
1x250V / 3A</description>
<pad name="1" x="-6.35" y="2.54" drill="0.8" diameter="1.27" shape="long" rot="R90"/>
<pad name="2" x="-3.81" y="2.54" drill="0.8" diameter="1.27" shape="long" rot="R90"/>
<pad name="3" x="-1.27" y="2.54" drill="0.8" diameter="1.27" shape="long" rot="R90"/>
<text x="-4.1275" y="4.445" size="1.778" layer="25" ratio="10">&gt;Name</text>
<text x="-5.08" y="-6.35" size="1.778" layer="27" ratio="10">&gt;Value</text>
<wire x1="-7.62" y1="3.81" x2="-7.62" y2="-3.81" width="0.127" layer="21"/>
<wire x1="-7.62" y1="-3.81" x2="0" y2="-3.81" width="0.127" layer="21"/>
<wire x1="0" y1="-3.81" x2="0" y2="3.81" width="0.127" layer="21"/>
<wire x1="0" y1="3.81" x2="-7.62" y2="3.81" width="0.127" layer="21"/>
<pad name="4" x="-6.35" y="-2.54" drill="0.8" diameter="1.27" shape="long" rot="R90"/>
<pad name="5" x="-3.81" y="-2.54" drill="0.8" diameter="1.27" shape="long" rot="R90"/>
<pad name="6" x="-1.27" y="-2.54" drill="0.8" diameter="1.27" shape="long" rot="R90"/>
</package>
</packages>
</library>
</libraries>
<attributes>
</attributes>
<variantdefs>
</variantdefs>
<classes>
<class number="0" name="default" width="0" drill="0">
</class>
</classes>
<designrules name="default">
<description language="de">&lt;b&gt;EAGLE Design Rules&lt;/b&gt;
&lt;p&gt;
Die Standard-Design-Rules sind so gewählt, dass sie für 
die meisten Anwendungen passen. Sollte ihre Platine 
besondere Anforderungen haben, treffen Sie die erforderlichen
Einstellungen hier und speichern die Design Rules unter 
einem neuen Namen ab.</description>
<description language="en">&lt;b&gt;EAGLE Design Rules&lt;/b&gt;
&lt;p&gt;
The default Design Rules have been set to cover
a wide range of applications. Your particular design
may have different requirements, so please make the
necessary adjustments and save your customized
design rules under a new name.</description>
<param name="layerSetup" value="(1*16)"/>
<param name="mtCopper" value="0.035mm 0.035mm 0.035mm 0.035mm 0.035mm 0.035mm 0.035mm 0.035mm 0.035mm 0.035mm 0.035mm 0.035mm 0.035mm 0.035mm 0.035mm 0.035mm"/>
<param name="mtIsolate" value="1.5mm 0.15mm 0.2mm 0.15mm 0.2mm 0.15mm 0.2mm 0.15mm 0.2mm 0.15mm 0.2mm 0.15mm 0.2mm 0.15mm 0.2mm"/>
<param name="mdWireWire" value="8mil"/>
<param name="mdWirePad" value="8mil"/>
<param name="mdWireVia" value="8mil"/>
<param name="mdPadPad" value="8mil"/>
<param name="mdPadVia" value="8mil"/>
<param name="mdViaVia" value="8mil"/>
<param name="mdSmdPad" value="8mil"/>
<param name="mdSmdVia" value="8mil"/>
<param name="mdSmdSmd" value="8mil"/>
<param name="mdViaViaSameLayer" value="8mil"/>
<param name="mnLayersViaInSmd" value="2"/>
<param name="mdCopperDimension" value="40mil"/>
<param name="mdDrill" value="8mil"/>
<param name="mdSmdStop" value="0mil"/>
<param name="msWidth" value="10mil"/>
<param name="msDrill" value="24mil"/>
<param name="msMicroVia" value="9.99mm"/>
<param name="msBlindViaRatio" value="0.5"/>
<param name="rvPadTop" value="0.25"/>
<param name="rvPadInner" value="0.25"/>
<param name="rvPadBottom" value="0.25"/>
<param name="rvViaOuter" value="0.25"/>
<param name="rvViaInner" value="0.25"/>
<param name="rvMicroViaOuter" value="0.25"/>
<param name="rvMicroViaInner" value="0.25"/>
<param name="rlMinPadTop" value="10mil"/>
<param name="rlMaxPadTop" value="20mil"/>
<param name="rlMinPadInner" value="10mil"/>
<param name="rlMaxPadInner" value="20mil"/>
<param name="rlMinPadBottom" value="10mil"/>
<param name="rlMaxPadBottom" value="20mil"/>
<param name="rlMinViaOuter" value="8mil"/>
<param name="rlMaxViaOuter" value="20mil"/>
<param name="rlMinViaInner" value="8mil"/>
<param name="rlMaxViaInner" value="20mil"/>
<param name="rlMinMicroViaOuter" value="4mil"/>
<param name="rlMaxMicroViaOuter" value="20mil"/>
<param name="rlMinMicroViaInner" value="4mil"/>
<param name="rlMaxMicroViaInner" value="20mil"/>
<param name="psTop" value="-1"/>
<param name="psBottom" value="-1"/>
<param name="psFirst" value="-1"/>
<param name="psElongationLong" value="100"/>
<param name="psElongationOffset" value="100"/>
<param name="mvStopFrame" value="1"/>
<param name="mvCreamFrame" value="0"/>
<param name="mlMinStopFrame" value="4mil"/>
<param name="mlMaxStopFrame" value="4mil"/>
<param name="mlMinCreamFrame" value="0mil"/>
<param name="mlMaxCreamFrame" value="0mil"/>
<param name="mlViaStopLimit" value="0mil"/>
<param name="srRoundness" value="0"/>
<param name="srMinRoundness" value="0mil"/>
<param name="srMaxRoundness" value="0mil"/>
<param name="slThermalIsolate" value="10mil"/>
<param name="slThermalsForVias" value="0"/>
<param name="dpMaxLengthDifference" value="10mm"/>
<param name="dpGapFactor" value="2.5"/>
<param name="checkGrid" value="0"/>
<param name="checkAngle" value="0"/>
<param name="checkFont" value="1"/>
<param name="checkRestrict" value="1"/>
<param name="useDiameter" value="13"/>
<param name="maxErrors" value="50"/>
</designrules>
<autorouter>
<pass name="Default">
<param name="RoutingGrid" value="50mil"/>
<param name="AutoGrid" value="1"/>
<param name="Efforts" value="0"/>
<param name="TopRouterVariant" value="1"/>
<param name="tpViaShape" value="round"/>
<param name="PrefDir.1" value="a"/>
<param name="PrefDir.2" value="0"/>
<param name="PrefDir.3" value="0"/>
<param name="PrefDir.4" value="0"/>
<param name="PrefDir.5" value="0"/>
<param name="PrefDir.6" value="0"/>
<param name="PrefDir.7" value="0"/>
<param name="PrefDir.8" value="0"/>
<param name="PrefDir.9" value="0"/>
<param name="PrefDir.10" value="0"/>
<param name="PrefDir.11" value="0"/>
<param name="PrefDir.12" value="0"/>
<param name="PrefDir.13" value="0"/>
<param name="PrefDir.14" value="0"/>
<param name="PrefDir.15" value="0"/>
<param name="PrefDir.16" value="a"/>
<param name="cfVia" value="8"/>
<param name="cfNonPref" value="5"/>
<param name="cfChangeDir" value="2"/>
<param name="cfOrthStep" value="2"/>
<param name="cfDiagStep" value="3"/>
<param name="cfExtdStep" value="0"/>
<param name="cfBonusStep" value="1"/>
<param name="cfMalusStep" value="1"/>
<param name="cfPadImpact" value="4"/>
<param name="cfSmdImpact" value="4"/>
<param name="cfBusImpact" value="0"/>
<param name="cfHugging" value="3"/>
<param name="cfAvoid" value="4"/>
<param name="cfPolygon" value="10"/>
<param name="cfBase.1" value="0"/>
<param name="cfBase.2" value="1"/>
<param name="cfBase.3" value="1"/>
<param name="cfBase.4" value="1"/>
<param name="cfBase.5" value="1"/>
<param name="cfBase.6" value="1"/>
<param name="cfBase.7" value="1"/>
<param name="cfBase.8" value="1"/>
<param name="cfBase.9" value="1"/>
<param name="cfBase.10" value="1"/>
<param name="cfBase.11" value="1"/>
<param name="cfBase.12" value="1"/>
<param name="cfBase.13" value="1"/>
<param name="cfBase.14" value="1"/>
<param name="cfBase.15" value="1"/>
<param name="cfBase.16" value="0"/>
<param name="mnVias" value="20"/>
<param name="mnSegments" value="9999"/>
<param name="mnExtdSteps" value="9999"/>
<param name="mnRipupLevel" value="10"/>
<param name="mnRipupSteps" value="100"/>
<param name="mnRipupTotal" value="100"/>
</pass>
<pass name="Follow-me" refer="Default" active="yes">
</pass>
<pass name="Busses" refer="Default" active="yes">
<param name="cfNonPref" value="4"/>
<param name="cfBusImpact" value="4"/>
<param name="cfHugging" value="0"/>
<param name="mnVias" value="0"/>
</pass>
<pass name="Route" refer="Default" active="yes">
</pass>
<pass name="Optimize1" refer="Default" active="yes">
<param name="cfVia" value="99"/>
<param name="cfExtdStep" value="10"/>
<param name="cfHugging" value="1"/>
<param name="mnExtdSteps" value="1"/>
<param name="mnRipupLevel" value="0"/>
</pass>
<pass name="Optimize2" refer="Optimize1" active="yes">
<param name="cfNonPref" value="0"/>
<param name="cfChangeDir" value="6"/>
<param name="cfExtdStep" value="0"/>
<param name="cfBonusStep" value="2"/>
<param name="cfMalusStep" value="2"/>
<param name="cfPadImpact" value="2"/>
<param name="cfSmdImpact" value="2"/>
<param name="cfHugging" value="0"/>
</pass>
<pass name="Optimize3" refer="Optimize2" active="yes">
<param name="cfChangeDir" value="8"/>
<param name="cfPadImpact" value="0"/>
<param name="cfSmdImpact" value="0"/>
</pass>
<pass name="Optimize4" refer="Optimize3" active="yes">
<param name="cfChangeDir" value="25"/>
</pass>
</autorouter>
<elements>
<element name="C2" library="#PaJa_30" package="1206" value="100n" x="42.535" y="34.18" rot="R270"/>
<element name="D2" library="#PaJa_30" package="SM-1" value="1N4007" x="9.48" y="56.74"/>
<element name="JP2" library="atomx_Connectors" package="1X05_LOCK_LONGPADS" value="PROGRAMMING PINS" x="14.735" y="39.51" rot="R180"/>
<element name="JP3" library="atomx_Connectors" package="1X05_LONGPADS" value="MPU6050" x="59.655" y="40.42" rot="R90"/>
<element name="R3" library="#PaJa_30" package="1206" value="10k" x="46.64" y="35.28" rot="R90"/>
<element name="SW1" library="#PaJa_prepinace" package="P-B069B" value="" x="17.63" y="59.66" rot="R90"/>
<element name="SW2" library="adafruit" package="TACT_PANA-EVQ" value="" x="22.375" y="43.21" rot="R270"/>
<element name="SW3" library="adafruit" package="TACT_PANA-EVQ" value="" x="43.305" y="35.28" rot="MR0"/>
<element name="IC1" library="#hahahalib" package="ESP32-WROOVER" value="ESP-WROOVER" x="36.46" y="47.92" rot="MR90"/>
<element name="JP1" library="atomx_Connectors" package="1X02" value="LiPol Battery" x="5.395" y="53.605"/>
<element name="R1" library="#PaJa_30" package="1206" value="10k" x="21.66" y="35.215" rot="R90"/>
<element name="R2" library="#PaJa_30" package="R-12,7" value="33k" x="17.63" y="43.94" rot="R270"/>
<element name="C1" library="#PaJa_30" package="1206" value="100n" x="19.72" y="35.28" rot="R270"/>
<element name="R4" library="#PaJa_30" package="1206" value="1k" x="21.59" y="50.8"/>
<element name="D1" library="#PaJa_30" package="LED_3" value="RED" x="32.69" y="34.64" rot="R180"/>
<element name="R5" library="#PaJa_30" package="1206" value="1k" x="37.23" y="34.68"/>
<element name="J1" library="#hahahalib" package="6XFPC" value="6XFPC" x="61.595" y="73.66" rot="R270"/>
<element name="J2" library="#hahahalib" package="6XFPC" value="6XFPC" x="46.355" y="73.66" rot="R270"/>
<element name="J3" library="#hahahalib" package="6XFPC" value="6XFPC" x="31.115" y="73.66" rot="R270"/>
<element name="J4" library="#hahahalib" package="6XFPC" value="6XFPC" x="15.875" y="73.66" rot="R270"/>
<element name="J5" library="#hahahalib" package="6XFPC" value="6XFPC" x="3.175" y="62.2015"/>
<element name="D3" library="#PaJa_30" package="LED_3" value="RED" x="64.7" y="39.1" rot="R270"/>
<element name="R6" library="#PaJa_30" package="1206" value="1k" x="62.9" y="36.3" rot="R90"/>
</elements>
<signals>
<signal name="MOSI">
<contactref element="IC1" pad="IO23"/>
<wire x1="46.62" y1="58.42" x2="46.62" y2="56.41" width="0.6096" layer="1"/>
<contactref element="J5" pad="3"/>
<contactref element="J4" pad="3"/>
<contactref element="J3" pad="3"/>
<contactref element="J2" pad="3"/>
<contactref element="J1" pad="3"/>
<wire x1="6.635" y1="63.3515" x2="6.035" y2="63.335" width="0.4064" layer="1"/>
<wire x1="6.035" y1="63.335" x2="8.49" y2="63.37" width="0.6096" layer="1"/>
<wire x1="8.49" y1="63.37" x2="10.16" y2="63.37" width="0.6096" layer="1"/>
<wire x1="10.16" y1="63.37" x2="10.16" y2="74.93" width="0.6096" layer="1"/>
<wire x1="10.16" y1="74.93" x2="17.025" y2="74.93" width="0.6096" layer="1"/>
<wire x1="17.025" y1="74.93" x2="17.025" y2="70.2" width="0.6096" layer="1"/>
<wire x1="17.025" y1="70.2" x2="17.045" y2="70.2" width="0.4064" layer="1"/>
<wire x1="17.045" y1="70.2" x2="17.045" y2="66.04" width="0.6096" layer="1"/>
<wire x1="17.045" y1="66.04" x2="24.765" y2="66.04" width="0.6096" layer="1"/>
<wire x1="24.765" y1="66.04" x2="24.765" y2="74.93" width="0.6096" layer="1"/>
<wire x1="24.765" y1="74.93" x2="32.265" y2="74.93" width="0.6096" layer="1"/>
<wire x1="32.265" y1="74.93" x2="32.265" y2="70.2" width="0.6096" layer="1"/>
<wire x1="32.265" y1="70.2" x2="32.285" y2="70.2" width="0.4064" layer="1"/>
<wire x1="32.285" y1="70.2" x2="32.285" y2="67.31" width="0.6096" layer="1"/>
<wire x1="32.285" y1="67.31" x2="40.005" y2="67.31" width="0.6096" layer="1"/>
<wire x1="40.005" y1="67.31" x2="40.005" y2="74.93" width="0.6096" layer="1"/>
<wire x1="40.005" y1="74.93" x2="47.505" y2="74.93" width="0.6096" layer="1"/>
<wire x1="47.505" y1="74.93" x2="47.505" y2="70.2" width="0.6096" layer="1"/>
<wire x1="47.505" y1="70.2" x2="47.525" y2="70.2" width="0.4064" layer="1"/>
<wire x1="47.525" y1="70.2" x2="47.525" y2="66.04" width="0.6096" layer="1"/>
<wire x1="47.525" y1="66.04" x2="52.705" y2="66.04" width="0.6096" layer="1"/>
<wire x1="52.705" y1="66.04" x2="52.705" y2="74.93" width="0.6096" layer="1"/>
<wire x1="52.705" y1="74.93" x2="62.745" y2="74.93" width="0.6096" layer="1"/>
<wire x1="62.745" y1="74.93" x2="62.745" y2="70.2" width="0.6096" layer="1"/>
<wire x1="62.705" y1="58.42" x2="46.62" y2="58.42" width="0.6096" layer="1"/>
<wire x1="62.745" y1="58.46" x2="62.745" y2="70.2" width="0.6096" layer="1"/>
<wire x1="62.745" y1="58.46" x2="62.705" y2="58.42" width="0" layer="19" extent="1-1"/>
</signal>
<signal name="MISO">
<contactref element="IC1" pad="IO19"/>
<wire x1="41.44" y1="60.96" x2="60.745" y2="60.96" width="0.6096" layer="1"/>
<wire x1="39" y1="57.82" x2="39" y2="56.41" width="0.6096" layer="1"/>
<wire x1="39" y1="57.82" x2="39.74" y2="59.16" width="0.6096" layer="1"/>
<wire x1="39.74" y1="59.16" x2="41.44" y2="60.96" width="0.6096" layer="1"/>
<contactref element="J5" pad="5"/>
<contactref element="J4" pad="5"/>
<contactref element="J3" pad="5"/>
<contactref element="J2" pad="5"/>
<contactref element="J1" pad="5"/>
<wire x1="6.635" y1="61.3515" x2="6.035" y2="61.295" width="0.4064" layer="1"/>
<wire x1="6.035" y1="61.295" x2="6.55" y2="61.33" width="0.6096" layer="1"/>
<wire x1="6.55" y1="61.33" x2="12.7" y2="61.33" width="0.6096" layer="1"/>
<wire x1="12.7" y1="61.33" x2="12.7" y2="72.39" width="0.6096" layer="1"/>
<wire x1="12.7" y1="72.39" x2="15.025" y2="72.39" width="0.6096" layer="1"/>
<wire x1="15.025" y1="72.39" x2="15.025" y2="70.2" width="0.6096" layer="1"/>
<wire x1="15.025" y1="70.2" x2="15.005" y2="70.2" width="0.4064" layer="1"/>
<wire x1="15.005" y1="70.2" x2="15.005" y2="63.5" width="0.6096" layer="1"/>
<wire x1="15.005" y1="63.5" x2="27.305" y2="63.5" width="0.6096" layer="1"/>
<wire x1="27.305" y1="63.5" x2="27.305" y2="72.39" width="0.6096" layer="1"/>
<wire x1="27.305" y1="72.39" x2="30.265" y2="72.39" width="0.6096" layer="1"/>
<wire x1="30.265" y1="72.39" x2="30.265" y2="70.2" width="0.6096" layer="1"/>
<wire x1="30.265" y1="70.2" x2="30.215" y2="70.2" width="0.4064" layer="1"/>
<wire x1="30.215" y1="70.2" x2="30.215" y2="64.77" width="0.6096" layer="1"/>
<wire x1="30.215" y1="64.77" x2="42.545" y2="64.77" width="0.6096" layer="1"/>
<wire x1="42.545" y1="64.77" x2="42.545" y2="72.39" width="0.6096" layer="1"/>
<wire x1="42.545" y1="72.39" x2="45.505" y2="72.39" width="0.6096" layer="1"/>
<wire x1="45.505" y1="72.39" x2="45.505" y2="70.2" width="0.6096" layer="1"/>
<wire x1="45.505" y1="70.2" x2="45.485" y2="70.2" width="0.4064" layer="1"/>
<wire x1="45.485" y1="70.2" x2="45.485" y2="63.5" width="0.6096" layer="1"/>
<wire x1="45.485" y1="63.5" x2="57.785" y2="63.5" width="0.6096" layer="1"/>
<wire x1="57.785" y1="63.5" x2="57.785" y2="72.39" width="0.6096" layer="1"/>
<wire x1="57.785" y1="72.39" x2="60.745" y2="72.39" width="0.6096" layer="1"/>
<wire x1="60.745" y1="72.39" x2="60.745" y2="70.2" width="0.6096" layer="1"/>
<wire x1="60.745" y1="60.96" x2="60.745" y2="70.2" width="0.6096" layer="1"/>
</signal>
<signal name="SCK">
<contactref element="IC1" pad="IO18"/>
<wire x1="37.73" y1="56.41" x2="37.7" y2="56.41" width="0.4064" layer="1"/>
<via x="37.7" y="59.59" extent="1-16" drill="0.5" diameter="1.016" shape="square"/>
<wire x1="37.7" y1="59.59" x2="37.7" y2="66.04" width="0.4064" layer="16"/>
<via x="37.7" y="66.04" extent="1-16" drill="0.5" diameter="1.016" shape="square"/>
<wire x1="37.7" y1="59.59" x2="37.7" y2="56.41" width="0.6096" layer="1"/>
<contactref element="J5" pad="4"/>
<contactref element="J4" pad="4"/>
<contactref element="J3" pad="4"/>
<contactref element="J2" pad="4"/>
<contactref element="J1" pad="4"/>
<wire x1="6.635" y1="62.3515" x2="6.135" y2="62.365" width="0.4064" layer="1"/>
<wire x1="6.135" y1="62.365" x2="7.52" y2="62.4" width="0.6096" layer="1"/>
<wire x1="7.52" y1="62.4" x2="11.43" y2="62.4" width="0.6096" layer="1"/>
<wire x1="11.43" y1="62.4" x2="11.43" y2="73.66" width="0.6096" layer="1"/>
<wire x1="11.43" y1="73.66" x2="16.025" y2="73.66" width="0.6096" layer="1"/>
<wire x1="16.025" y1="73.66" x2="16.025" y2="70.2" width="0.6096" layer="1"/>
<wire x1="16.025" y1="70.2" x2="16.075" y2="70.2" width="0.4064" layer="1"/>
<wire x1="16.075" y1="70.2" x2="16.075" y2="64.77" width="0.6096" layer="1"/>
<wire x1="16.075" y1="64.77" x2="26.035" y2="64.77" width="0.6096" layer="1"/>
<wire x1="26.035" y1="64.77" x2="26.035" y2="73.66" width="0.6096" layer="1"/>
<wire x1="26.035" y1="73.66" x2="31.265" y2="73.66" width="0.6096" layer="1"/>
<wire x1="31.265" y1="73.66" x2="31.265" y2="70.2" width="0.6096" layer="1"/>
<wire x1="31.265" y1="70.2" x2="31.215" y2="70.2" width="0.4064" layer="1"/>
<wire x1="31.215" y1="70.2" x2="31.215" y2="66.04" width="0.6096" layer="1"/>
<wire x1="31.215" y1="66.04" x2="37.7" y2="66.04" width="0.6096" layer="1"/>
<wire x1="37.7" y1="66.04" x2="41.275" y2="66.04" width="0.6096" layer="1"/>
<wire x1="41.275" y1="66.04" x2="41.275" y2="73.66" width="0.6096" layer="1"/>
<wire x1="41.275" y1="73.66" x2="46.505" y2="73.66" width="0.6096" layer="1"/>
<wire x1="46.505" y1="73.66" x2="46.505" y2="70.2" width="0.6096" layer="1"/>
<wire x1="46.505" y1="70.2" x2="46.555" y2="70.2" width="0.4064" layer="1"/>
<wire x1="46.555" y1="70.2" x2="46.555" y2="64.77" width="0.6096" layer="1"/>
<wire x1="46.555" y1="64.77" x2="56.515" y2="64.77" width="0.6096" layer="1"/>
<wire x1="56.515" y1="64.77" x2="56.515" y2="73.66" width="0.6096" layer="1"/>
<wire x1="56.515" y1="73.66" x2="61.745" y2="73.66" width="0.6096" layer="1"/>
<wire x1="61.745" y1="73.66" x2="61.745" y2="70.2" width="0.6096" layer="1"/>
</signal>
<signal name="CS1">
<contactref element="IC1" pad="IO5"/>
<wire x1="35.425" y1="62.23" x2="59.255" y2="62.23" width="0.6096" layer="1"/>
<contactref element="J1" pad="6"/>
<wire x1="59.745" y1="70.2" x2="59.255" y2="70.2" width="0.6096" layer="1"/>
<wire x1="59.255" y1="70.2" x2="59.255" y2="62.23" width="0.6096" layer="1"/>
<wire x1="35.425" y1="62.23" x2="35.3" y2="62.105" width="0.6096" layer="1"/>
<wire x1="35.3" y1="62.105" x2="35.3" y2="59.2" width="0.6096" layer="1"/>
<wire x1="35.3" y1="59.2" x2="36.46" y2="58.04" width="0.6096" layer="1"/>
<wire x1="36.46" y1="58.04" x2="36.46" y2="56.41" width="0.6096" layer="1"/>
</signal>
<signal name="CS2">
<contactref element="IC1" pad="IO4"/>
<wire x1="44.315" y1="63.5" x2="33.325" y2="63.5" width="0.6096" layer="1"/>
<contactref element="J2" pad="6"/>
<wire x1="44.505" y1="70.2" x2="44.315" y2="70.2" width="0.4064" layer="1"/>
<wire x1="44.315" y1="70.2" x2="44.315" y2="63.5" width="0.6096" layer="1"/>
<wire x1="33.325" y1="63.5" x2="32.65" y2="63.46" width="0.6096" layer="1"/>
<wire x1="32.65" y1="63.46" x2="32.65" y2="56.41" width="0.6096" layer="1"/>
</signal>
<signal name="CS3">
<contactref element="IC1" pad="IO0"/>
<wire x1="31.38" y1="63.5" x2="31.38" y2="56.41" width="0.6096" layer="1"/>
<wire x1="30.015" y1="53.575" x2="24.3" y2="50.8" width="0.8128" layer="1"/>
<wire x1="30.015" y1="53.575" x2="30.815" y2="54.51" width="0.8128" layer="1"/>
<wire x1="30.815" y1="54.51" x2="31.38" y2="55.245" width="0.8128" layer="1"/>
<wire x1="31.38" y1="55.245" x2="31.38" y2="56.41" width="0.8128" layer="1"/>
<contactref element="R4" pad="2"/>
<wire x1="24.3" y1="50.8" x2="23.1775" y2="50.8" width="0.8128" layer="1"/>
<contactref element="J3" pad="6"/>
<wire x1="29.265" y1="70.2" x2="29.075" y2="70.2" width="0.6096" layer="1"/>
<wire x1="29.075" y1="70.2" x2="29.075" y2="63.5" width="0.6096" layer="1"/>
<wire x1="29.075" y1="63.5" x2="31.38" y2="63.5" width="0.6096" layer="1"/>
</signal>
<signal name="CS4">
<contactref element="IC1" pad="IO2"/>
<wire x1="14.035" y1="62.23" x2="30.11" y2="62.23" width="0.6096" layer="1"/>
<wire x1="30.11" y1="62.23" x2="30.11" y2="56.41" width="0.6096" layer="1"/>
<contactref element="J4" pad="6"/>
<wire x1="14.025" y1="70.2" x2="14.035" y2="70.2" width="0.4064" layer="1"/>
<wire x1="14.035" y1="70.2" x2="14.035" y2="62.23" width="0.6096" layer="1"/>
</signal>
<signal name="CS5">
<contactref element="IC1" pad="IO15"/>
<wire x1="28.84" y1="60.325" x2="28.84" y2="56.41" width="0.6096" layer="1"/>
<wire x1="28.84" y1="60.325" x2="5.93" y2="60.325" width="0.6096" layer="1"/>
<contactref element="J5" pad="6"/>
<wire x1="6.635" y1="60.3515" x2="6.835" y2="60.375" width="0.4064" layer="1"/>
<wire x1="6.835" y1="60.375" x2="5.93" y2="60.325" width="0.6096" layer="1"/>
</signal>
<signal name="+3V3">
<contactref element="IC1" pad="3V3"/>
<contactref element="R3" pad="2"/>
<contactref element="JP3" pad="1"/>
<contactref element="D2" pad="K"/>
<wire x1="59.655" y1="40.42" x2="56.515" y2="40.42" width="1.27" layer="1"/>
<wire x1="46.62" y1="37.35" x2="56.515" y2="37.35" width="1.016" layer="1"/>
<wire x1="46.62" y1="37.35" x2="46.62" y2="39.43" width="0.8128" layer="1"/>
<wire x1="56.515" y1="40.42" x2="64" y2="40.42" width="1.016" layer="1"/>
<wire x1="64" y1="40.42" x2="65.21" y2="40.42" width="1.016" layer="1"/>
<wire x1="56.515" y1="37.35" x2="56.515" y2="40.42" width="1.016" layer="1"/>
<contactref element="J1" pad="1"/>
<contactref element="J5" pad="1"/>
<contactref element="J4" pad="1"/>
<contactref element="J3" pad="1"/>
<contactref element="J2" pad="1"/>
<wire x1="6.635" y1="65.3515" x2="3.835" y2="65.342" width="0.6096" layer="1"/>
<wire x1="19.025" y1="70.2" x2="18.985" y2="70.4" width="0.4064" layer="1"/>
<wire x1="34.265" y1="70.2" x2="34.325" y2="70.1" width="0.4064" layer="1"/>
<wire x1="34.325" y1="70.1" x2="34.325" y2="77.87" width="0.6096" layer="1"/>
<wire x1="64.745" y1="70.2" x2="65.205" y2="70.2" width="0.6096" layer="1"/>
<wire x1="65.205" y1="70.2" x2="65.205" y2="77.87" width="0.6096" layer="1"/>
<wire x1="19.025" y1="77.87" x2="19.025" y2="70.2" width="0.6096" layer="1"/>
<wire x1="3.8" y1="65.57" x2="7.39" y2="65.57" width="1.016" layer="1"/>
<wire x1="7.39" y1="65.57" x2="7.39" y2="77.9" width="1.016" layer="1"/>
<wire x1="7.39" y1="77.9" x2="19.025" y2="77.87" width="1.016" layer="1"/>
<wire x1="34.325" y1="77.87" x2="49.635" y2="77.87" width="1.016" layer="1"/>
<wire x1="49.635" y1="77.87" x2="65.205" y2="77.87" width="1.016" layer="1"/>
<wire x1="19.025" y1="77.87" x2="34.325" y2="77.87" width="1.016" layer="1"/>
<wire x1="49.505" y1="70.2" x2="49.635" y2="70.2" width="0.6096" layer="1"/>
<wire x1="49.635" y1="70.2" x2="49.635" y2="77.87" width="0.6096" layer="1"/>
<wire x1="65.21" y1="40.42" x2="65.21" y2="77.87" width="1.016" layer="1"/>
<wire x1="6.6225" y1="56.74" x2="3.8" y2="56.74" width="1.016" layer="1"/>
<wire x1="3.8" y1="56.74" x2="3.8" y2="65.57" width="1.016" layer="1"/>
<wire x1="65.205" y1="77.87" x2="65.21" y2="77.87" width="1.016" layer="1"/>
<contactref element="D3" pad="A"/>
<wire x1="64.7" y1="40.37" x2="64" y2="40.37" width="1.016" layer="1"/>
<wire x1="64" y1="40.37" x2="64" y2="40.42" width="1.016" layer="1"/>
<wire x1="46.62" y1="37.35" x2="46.64" y2="36.8675" width="0" layer="19" extent="1-1"/>
<wire x1="3.835" y1="65.342" x2="3.8" y2="65.57" width="0" layer="19" extent="1-1"/>
</signal>
<signal name="GND">
<contactref element="IC1" pad="GND"/>
<contactref element="IC1" pad="@GND"/>
<contactref element="IC1" pad="GND$2"/>
<contactref element="JP2" pad="1"/>
<contactref element="SW2" pad="P$2"/>
<contactref element="SW3" pad="P$1"/>
<contactref element="C2" pad="2"/>
<contactref element="JP3" pad="2"/>
<contactref element="IC1" pad="GND4"/>
<wire x1="63.26" y1="54.01" x2="63.405" y2="54.51" width="0.6096" layer="1"/>
<wire x1="47.89" y1="54.61" x2="47.89" y2="56.41" width="0.8128" layer="1"/>
<wire x1="63.77" y1="54.51" x2="63.26" y2="54.01" width="0.6096" layer="1"/>
<wire x1="63.77" y1="54.51" x2="61.34" y2="54.71" width="0.6096" layer="1"/>
<wire x1="61.34" y1="54.71" x2="47.89" y2="54.61" width="0.6096" layer="1"/>
<wire x1="59.655" y1="42.96" x2="63.735" y2="42.86" width="0.6096" layer="1"/>
<wire x1="63.735" y1="42.86" x2="63.77" y2="54.51" width="0.6096" layer="1"/>
<wire x1="22.36" y1="41.875" x2="30.11" y2="41.875" width="1.27" layer="1"/>
<wire x1="59.655" y1="42.96" x2="47.89" y2="42.96" width="1.27" layer="1"/>
<wire x1="47.89" y1="42.545" x2="47.89" y2="39.43" width="0.8128" layer="1"/>
<wire x1="39" y1="47.285" x2="41.91" y2="47.285" width="0.4064" layer="1"/>
<wire x1="39" y1="47.285" x2="38.735" y2="47.285" width="0.4064" layer="1"/>
<wire x1="38.735" y1="47.285" x2="38.735" y2="42.545" width="1.27" layer="1"/>
<wire x1="38.735" y1="42.545" x2="47.89" y2="42.545" width="1.27" layer="1"/>
<wire x1="47.89" y1="42.96" x2="47.89" y2="42.545" width="0.8128" layer="1"/>
<wire x1="38.735" y1="42.545" x2="30.11" y2="42.545" width="1.27" layer="1"/>
<wire x1="30.11" y1="42.545" x2="30.11" y2="41.875" width="0.8128" layer="1"/>
<wire x1="30.11" y1="41.875" x2="30.11" y2="39.43" width="0.8128" layer="1"/>
<wire x1="50.76" y1="32.035" x2="64.6" y2="32.035" width="1.016" layer="1"/>
<wire x1="64.6" y1="32.035" x2="64.6" y2="32" width="1.016" layer="1"/>
<wire x1="64.6" y1="32" x2="2.2" y2="32.1" width="1.016" layer="1"/>
<wire x1="2.2" y1="32.1" x2="2.2" y2="32.599196875" width="1.016" layer="1"/>
<wire x1="2.2" y1="32.599196875" x2="29.3959625" y2="32.599196875" width="1.016" layer="1"/>
<wire x1="29.3959625" y1="32.599196875" x2="17.035" y2="32.665" width="1.016" layer="1"/>
<wire x1="17.035" y1="32.665" x2="17.32700625" y2="32.3" width="1.016" layer="1"/>
<wire x1="22.36" y1="41.875" x2="22.36" y2="40.64" width="1.27" layer="1"/>
<wire x1="22.36" y1="40.64" x2="22.375" y2="40.64" width="0.8128" layer="1"/>
<polygon width="1.016" layer="1" isolate="1">
<vertex x="0" y="78.105"/>
<vertex x="66.04" y="78.105"/>
<vertex x="66.04" y="31.115"/>
<vertex x="0" y="31.115"/>
</polygon>
<wire x1="2.11" y1="36.685" x2="2.31700625" y2="32.288821875" width="1.016" layer="1"/>
<wire x1="2.31700625" y1="32.288821875" x2="15.04" y2="32.37" width="1.016" layer="1"/>
<wire x1="15.04" y1="32.37" x2="14.7" y2="38.245" width="1.016" layer="1"/>
<wire x1="14.7" y1="38.245" x2="14.7" y2="41.875" width="1.778" layer="1"/>
<wire x1="14.7" y1="41.875" x2="16.89" y2="40.67" width="1.016" layer="1"/>
<wire x1="16.89" y1="40.67" x2="22.375" y2="40.64" width="1.016" layer="1"/>
<wire x1="22.375" y1="40.64" x2="22.375" y2="40.595" width="1.016" layer="1"/>
<wire x1="50.76" y1="32.035" x2="48.46" y2="35.28" width="1.016" layer="1"/>
<contactref element="R1" pad="1"/>
<contactref element="C1" pad="2"/>
<contactref element="JP1" pad="1"/>
<wire x1="5.08" y1="53.34" x2="1.97" y2="53.34" width="0.8128" layer="1"/>
<wire x1="1.97" y1="53.34" x2="1.97" y2="40.005" width="0.8128" layer="1"/>
<wire x1="1.97" y1="40.005" x2="2.11" y2="36.685" width="0.8128" layer="1"/>
<contactref element="J1" pad="2"/>
<contactref element="J5" pad="2"/>
<contactref element="J4" pad="2"/>
<contactref element="J3" pad="2"/>
<contactref element="J2" pad="2"/>
<wire x1="6.635" y1="64.3515" x2="5.935" y2="64.405" width="0.4064" layer="1"/>
<wire x1="5.935" y1="64.405" x2="8.925" y2="64.34" width="0.6096" layer="1"/>
<wire x1="8.925" y1="64.34" x2="8.89" y2="64.34" width="0.6096" layer="1"/>
<wire x1="8.89" y1="64.34" x2="8.89" y2="76.2" width="0.6096" layer="1"/>
<wire x1="8.89" y1="76.2" x2="18.025" y2="76.2" width="0.6096" layer="1"/>
<wire x1="18.025" y1="76.2" x2="18.025" y2="70.2" width="0.6096" layer="1"/>
<wire x1="18.025" y1="70.2" x2="18.015" y2="70.2" width="0.4064" layer="1"/>
<wire x1="18.015" y1="70.2" x2="18.015" y2="67.31" width="0.6096" layer="1"/>
<wire x1="18.015" y1="67.31" x2="23.495" y2="67.31" width="0.6096" layer="1"/>
<wire x1="23.495" y1="67.31" x2="23.495" y2="76.2" width="0.6096" layer="1"/>
<wire x1="23.495" y1="76.2" x2="33.265" y2="76.2" width="0.6096" layer="1"/>
<wire x1="33.265" y1="76.2" x2="33.265" y2="70.2" width="0.6096" layer="1"/>
<wire x1="33.265" y1="70.2" x2="33.255" y2="70.2" width="0.4064" layer="1"/>
<wire x1="33.255" y1="70.2" x2="33.255" y2="68.28" width="0.6096" layer="1"/>
<wire x1="33.255" y1="68.28" x2="38.735" y2="68.28" width="0.6096" layer="1"/>
<wire x1="38.735" y1="68.28" x2="38.735" y2="76.2" width="0.6096" layer="1"/>
<wire x1="38.735" y1="76.2" x2="48.505" y2="76.2" width="0.6096" layer="1"/>
<wire x1="48.505" y1="76.2" x2="48.505" y2="70.2" width="0.6096" layer="1"/>
<wire x1="48.505" y1="70.2" x2="48.495" y2="70.2" width="0.4064" layer="1"/>
<wire x1="48.495" y1="70.2" x2="48.495" y2="67.31" width="0.6096" layer="1"/>
<wire x1="48.495" y1="67.31" x2="51.435" y2="67.31" width="0.6096" layer="1"/>
<wire x1="51.435" y1="67.31" x2="51.435" y2="76.2" width="0.6096" layer="1"/>
<wire x1="51.435" y1="76.2" x2="63.745" y2="76.2" width="0.6096" layer="1"/>
<wire x1="63.745" y1="76.2" x2="63.745" y2="70.2" width="0.6096" layer="1"/>
<wire x1="63.405" y1="54.51" x2="63.745" y2="54.51" width="0.6096" layer="1"/>
<wire x1="63.745" y1="54.51" x2="63.745" y2="70.2" width="0.6096" layer="1"/>
<wire x1="17.32700625" y1="32.3" x2="2.31700625" y2="32.288821875" width="1.016" layer="1"/>
<contactref element="R6" pad="1"/>
<wire x1="62.9" y1="34.7125" x2="48.5" y2="34.8125" width="1.016" layer="1"/>
<wire x1="48.5" y1="34.8125" x2="48.5" y2="35.2" width="1.016" layer="1"/>
<contactref element="D1" pad="K"/>
<wire x1="31.42" y1="34.64" x2="29.3959625" y2="34.64" width="0.8128" layer="1"/>
<wire x1="29.3959625" y1="34.64" x2="29.3959625" y2="32.599196875" width="0.8128" layer="1"/>
<wire x1="48.5" y1="34.8125" x2="42.535" y2="32.5925" width="0" layer="19" extent="1-1"/>
</signal>
<signal name="TX0">
<contactref element="IC1" pad="TXD0"/>
<contactref element="JP2" pad="2"/>
<wire x1="33.655" y1="52.47" x2="44.08" y2="52.47" width="0.8128" layer="1"/>
<wire x1="44.08" y1="52.47" x2="44.08" y2="56.41" width="0.8128" layer="1"/>
<wire x1="33.655" y1="52.47" x2="23.495" y2="44.45" width="0.8128" layer="1"/>
<wire x1="12.195" y1="40.97" x2="12.195" y2="39.509" width="0.8128" layer="1"/>
<wire x1="23.495" y1="44.45" x2="19.05" y2="44.45" width="0.8128" layer="1"/>
<wire x1="19.05" y1="44.45" x2="12.21" y2="44.39" width="0.8128" layer="1"/>
<wire x1="12.21" y1="44.39" x2="12.195" y2="40.97" width="0.8128" layer="1"/>
</signal>
<signal name="RX0">
<contactref element="IC1" pad="RXD0"/>
<contactref element="JP2" pad="3"/>
<wire x1="42.81" y1="53.705" x2="42.81" y2="56.41" width="0.8128" layer="1"/>
<wire x1="42.81" y1="53.705" x2="33.87" y2="53.705" width="0.8128" layer="1"/>
<wire x1="33.87" y1="53.705" x2="33.235" y2="53.665" width="0.8128" layer="1"/>
<wire x1="33.235" y1="53.665" x2="25.585" y2="48.155" width="0.8128" layer="1"/>
<wire x1="25.585" y1="48.155" x2="23.045" y2="45.92" width="0.8128" layer="1"/>
<wire x1="9.655" y1="45.86" x2="9.655" y2="39.51" width="0.8128" layer="1"/>
<wire x1="20.32" y1="45.92" x2="17.78" y2="45.86" width="0.8128" layer="1"/>
<wire x1="17.78" y1="45.86" x2="9.655" y2="45.86" width="0.8128" layer="1"/>
<wire x1="20.32" y1="45.92" x2="23.045" y2="45.92" width="0.8128" layer="1"/>
</signal>
<signal name="SCL">
<contactref element="IC1" pad="IO22"/>
<contactref element="JP3" pad="4"/>
<wire x1="59.655" y1="48.04" x2="45.35" y2="48.04" width="0.8128" layer="1"/>
<wire x1="45.35" y1="48.04" x2="45.35" y2="56.41" width="0.8128" layer="1"/>
</signal>
<signal name="SDA">
<contactref element="IC1" pad="IO21"/>
<contactref element="JP3" pad="3"/>
<wire x1="59.655" y1="45.5" x2="56.7" y2="45.5" width="0.8128" layer="1"/>
<wire x1="56.7" y1="45.5" x2="56.7" y2="45.57" width="0.8128" layer="1"/>
<wire x1="41.54" y1="56.41" x2="41.54" y2="58.72" width="0.6096" layer="1"/>
<wire x1="41.54" y1="58.72" x2="42.31" y2="59.69" width="0.6096" layer="1"/>
<wire x1="42.31" y1="59.69" x2="56.7" y2="59.69" width="0.6096" layer="1"/>
<wire x1="56.7" y1="59.69" x2="56.7" y2="59.7" width="0.6096" layer="1"/>
<via x="56.7" y="59.7" extent="1-16" drill="0.5" diameter="1.016" shape="square"/>
<wire x1="56.7" y1="59.7" x2="56.7" y2="45.57" width="0.6096" layer="16"/>
<via x="56.7" y="45.57" extent="1-16" drill="0.5" diameter="1.016" shape="square"/>
</signal>
<signal name="EN1">
<contactref element="IC1" pad="EN"/>
<contactref element="SW3" pad="P$2"/>
<contactref element="R3" pad="1"/>
<contactref element="C2" pad="1"/>
<wire x1="42.535" y1="35.7675" x2="42.59" y2="35.335" width="0.6096" layer="1"/>
<wire x1="42.59" y1="35.335" x2="40.69" y2="35.28" width="0.6096" layer="1"/>
<wire x1="40.69" y1="35.28" x2="43.2" y2="35.32" width="0.6096" layer="1"/>
<wire x1="43.2" y1="35.32" x2="46.0625" y2="34.12" width="0.6096" layer="1"/>
<wire x1="46.0625" y1="34.12" x2="46.64" y2="33.6925" width="0.6096" layer="1"/>
<wire x1="45.35" y1="39.43" x2="45.3" y2="38.33" width="0.6096" layer="1"/>
<wire x1="45.3" y1="38.33" x2="43.4" y2="35.3" width="0.6096" layer="1"/>
<wire x1="43.4" y1="35.3" x2="43" y2="35.32" width="0.6096" layer="1"/>
<wire x1="43" y1="35.32" x2="43.2" y2="35.32" width="0.6096" layer="1"/>
</signal>
<signal name="VBAT2">
<contactref element="D2" pad="A"/>
<contactref element="R2" pad="1"/>
<contactref element="SW1" pad="2"/>
<wire x1="15.09" y1="55.85" x2="12.2" y2="55.85" width="1.016" layer="1"/>
<wire x1="12.2" y1="55.85" x2="12.2" y2="56" width="1.016" layer="1"/>
<wire x1="15.09" y1="55.85" x2="17.63" y2="55.85" width="1.016" layer="1"/>
<wire x1="17.63" y1="55.85" x2="17.63" y2="50.29" width="1.016" layer="1"/>
<wire x1="12.2" y1="56" x2="12.3375" y2="56.74" width="0" layer="19" extent="1-1"/>
</signal>
<signal name="N$3">
<contactref element="JP2" pad="5"/>
<contactref element="JP2" pad="4"/>
<wire x1="7.115" y1="39.509" x2="4.575" y2="39.51" width="0.8128" layer="1"/>
</signal>
<signal name="VBAT">
<contactref element="R1" pad="2"/>
<contactref element="R2" pad="2"/>
<contactref element="IC1" pad="IO33"/>
<wire x1="21.66" y1="36.8025" x2="22.20026875" y2="36.8040125" width="0.8128" layer="1"/>
<wire x1="22.20026875" y1="36.8040125" x2="37.73" y2="36.8475" width="0.8128" layer="1"/>
<wire x1="37.73" y1="36.8475" x2="37.73" y2="39.43" width="0.8128" layer="1"/>
<contactref element="C1" pad="1"/>
<wire x1="17.63" y1="37.59" x2="17.7" y2="37.59" width="1.016" layer="1"/>
<wire x1="17.7" y1="37.59" x2="17.7" y2="36.8" width="1.016" layer="1"/>
<wire x1="17.7" y1="36.8" x2="22.20026875" y2="36.8" width="1.016" layer="1"/>
<wire x1="22.20026875" y1="36.8" x2="22.20026875" y2="36.8040125" width="1.016" layer="1"/>
<wire x1="21.66" y1="36.8025" x2="19.72" y2="36.8675" width="0" layer="19" extent="1-1"/>
</signal>
<signal name="BOOT">
<contactref element="R4" pad="1"/>
<contactref element="SW2" pad="P$1"/>
<wire x1="20.0025" y1="50.8" x2="19.82" y2="50.8" width="0.6096" layer="1"/>
<wire x1="19.82" y1="50.8" x2="19.82" y2="48.26" width="0.6096" layer="1"/>
<wire x1="19.82" y1="48.26" x2="22.375" y2="48.26" width="0.6096" layer="1"/>
<wire x1="22.375" y1="48.26" x2="22.375" y2="48.365" width="0.6096" layer="1"/>
</signal>
<signal name="VBAT1">
<contactref element="SW1" pad="1"/>
<contactref element="JP1" pad="2"/>
<wire x1="7.935" y1="53.605" x2="7.9" y2="53.605" width="1.27" layer="1"/>
<wire x1="7.9" y1="53.605" x2="7.9" y2="53.2" width="1.27" layer="1"/>
<wire x1="7.9" y1="53.2" x2="15.19" y2="53.205" width="1.27" layer="1"/>
<wire x1="15.19" y1="53.205" x2="15.09" y2="53.31" width="0.8128" layer="1"/>
</signal>
<signal name="N$1">
<contactref element="D3" pad="K"/>
<contactref element="R6" pad="2"/>
<wire x1="62.9" y1="37.8875" x2="64.7" y2="37.8875" width="1.016" layer="1"/>
<wire x1="64.7" y1="37.8875" x2="64.7" y2="37.83" width="1.016" layer="1"/>
</signal>
<signal name="LED">
<contactref element="R5" pad="1"/>
<contactref element="D1" pad="A"/>
<wire x1="33.96" y1="34.64" x2="35.6425" y2="34.64" width="0.8128" layer="1"/>
<wire x1="35.6425" y1="34.64" x2="35.6425" y2="34.68" width="0.8128" layer="1"/>
</signal>
<signal name="LEDR">
<contactref element="R5" pad="2"/>
<contactref element="IC1" pad="IO32"/>
<wire x1="39" y1="39.43" x2="39" y2="35.6" width="0.8128" layer="1"/>
<wire x1="38.8175" y1="34.68" x2="39" y2="35.6" width="0" layer="19" extent="1-1"/>
</signal>
</signals>
</board>
</drawing>
</eagle>
